{
  "profiles": {
    "Tesseract.Executable": {
      "commandName": "Project",
      "commandLineArgs": "cloneCosmosDb --src=\"https://dev-tesseract.documents.azure.com:443/\" --des=\"https://localhost:8081/\" --src-db=\"testdb\" --des-db=\"testdb\" --src-key=\"cEO5cZMAkdLGZ0WtVkI2kjiG4E5kVtO1EFHFKyE6CXuP6TtHlkGO1GzXkMOv9VYtN2UYJJCoytsUxtseD259PQ==\" --des-key=\"C2y6yDjf5/R+ob0N8A7Cgv30VRDJIWEHLM+4QDU5DE2nQ9nDuVTqobD4b8mGGyPMbIZnqyMsEcaGQy67XIw/Jw==\""
    }
  }
}